{
	"compiler": {
		"version": "0.8.7+commit.e28d00a7"
	},
	"language": "Solidity",
	"output": {
		"abi": [
			{
				"anonymous": false,
				"inputs": [
					{
						"indexed": false,
						"internalType": "address",
						"name": "buyer",
						"type": "address"
					},
					{
						"indexed": false,
						"internalType": "uint256",
						"name": "amount",
						"type": "uint256"
					},
					{
						"indexed": false,
						"internalType": "string",
						"name": "t_type",
						"type": "string"
					}
				],
				"name": "toAddress",
				"type": "event"
			},
			{
				"inputs": [],
				"name": "burnRate",
				"outputs": [
					{
						"internalType": "uint256",
						"name": "",
						"type": "uint256"
					}
				],
				"stateMutability": "view",
				"type": "function"
			},
			{
				"inputs": [
					{
						"internalType": "uint256",
						"name": "id",
						"type": "uint256"
					}
				],
				"name": "buyNFT",
				"outputs": [
					{
						"internalType": "bool",
						"name": "",
						"type": "bool"
					}
				],
				"stateMutability": "nonpayable",
				"type": "function"
			},
			{
				"inputs": [
					{
						"internalType": "uint256",
						"name": "id",
						"type": "uint256"
					}
				],
				"name": "endSale",
				"outputs": [
					{
						"internalType": "bool",
						"name": "",
						"type": "bool"
					}
				],
				"stateMutability": "nonpayable",
				"type": "function"
			},
			{
				"inputs": [],
				"name": "op_fee",
				"outputs": [
					{
						"internalType": "uint256",
						"name": "",
						"type": "uint256"
					}
				],
				"stateMutability": "view",
				"type": "function"
			},
			{
				"inputs": [],
				"name": "pool_fee",
				"outputs": [
					{
						"internalType": "uint256",
						"name": "",
						"type": "uint256"
					}
				],
				"stateMutability": "view",
				"type": "function"
			},
			{
				"inputs": [
					{
						"internalType": "uint256",
						"name": "",
						"type": "uint256"
					}
				],
				"name": "prices",
				"outputs": [
					{
						"internalType": "uint256",
						"name": "",
						"type": "uint256"
					}
				],
				"stateMutability": "view",
				"type": "function"
			},
			{
				"inputs": [
					{
						"internalType": "uint256",
						"name": "id",
						"type": "uint256"
					},
					{
						"internalType": "uint256",
						"name": "price",
						"type": "uint256"
					}
				],
				"name": "sellNFT",
				"outputs": [
					{
						"internalType": "bool",
						"name": "",
						"type": "bool"
					}
				],
				"stateMutability": "nonpayable",
				"type": "function"
			},
			{
				"inputs": [
					{
						"internalType": "uint256",
						"name": "",
						"type": "uint256"
					}
				],
				"name": "selling",
				"outputs": [
					{
						"internalType": "bool",
						"name": "",
						"type": "bool"
					}
				],
				"stateMutability": "view",
				"type": "function"
			},
			{
				"inputs": [
					{
						"internalType": "uint256",
						"name": "rate",
						"type": "uint256"
					}
				],
				"name": "setBurn",
				"outputs": [
					{
						"internalType": "bool",
						"name": "",
						"type": "bool"
					}
				],
				"stateMutability": "nonpayable",
				"type": "function"
			},
			{
				"inputs": [
					{
						"internalType": "address",
						"name": "adr",
						"type": "address"
					}
				],
				"name": "setMFBAddress",
				"outputs": [
					{
						"internalType": "bool",
						"name": "",
						"type": "bool"
					}
				],
				"stateMutability": "nonpayable",
				"type": "function"
			},
			{
				"inputs": [
					{
						"internalType": "address",
						"name": "adr",
						"type": "address"
					}
				],
				"name": "setNFTAddress",
				"outputs": [
					{
						"internalType": "bool",
						"name": "",
						"type": "bool"
					}
				],
				"stateMutability": "nonpayable",
				"type": "function"
			},
			{
				"inputs": [
					{
						"internalType": "uint256",
						"name": "rate",
						"type": "uint256"
					}
				],
				"name": "setOpFee",
				"outputs": [
					{
						"internalType": "bool",
						"name": "",
						"type": "bool"
					}
				],
				"stateMutability": "nonpayable",
				"type": "function"
			},
			{
				"inputs": [
					{
						"internalType": "address",
						"name": "adr",
						"type": "address"
					}
				],
				"name": "setOpWalletAddress",
				"outputs": [
					{
						"internalType": "bool",
						"name": "",
						"type": "bool"
					}
				],
				"stateMutability": "nonpayable",
				"type": "function"
			},
			{
				"inputs": [
					{
						"internalType": "address",
						"name": "adr",
						"type": "address"
					}
				],
				"name": "setPoolAddress",
				"outputs": [
					{
						"internalType": "bool",
						"name": "",
						"type": "bool"
					}
				],
				"stateMutability": "nonpayable",
				"type": "function"
			},
			{
				"inputs": [
					{
						"internalType": "uint256",
						"name": "rate",
						"type": "uint256"
					}
				],
				"name": "setPoolRate",
				"outputs": [
					{
						"internalType": "bool",
						"name": "",
						"type": "bool"
					}
				],
				"stateMutability": "nonpayable",
				"type": "function"
			}
		],
		"devdoc": {
			"kind": "dev",
			"methods": {},
			"version": 1
		},
		"userdoc": {
			"kind": "user",
			"methods": {},
			"version": 1
		}
	},
	"settings": {
		"compilationTarget": {
			"contracts/Market.sol": "Market"
		},
		"evmVersion": "london",
		"libraries": {},
		"metadata": {
			"bytecodeHash": "ipfs"
		},
		"optimizer": {
			"enabled": false,
			"runs": 200
		},
		"remappings": []
	},
	"sources": {
		"contracts/Access.sol": {
			"keccak256": "0x32d65f673e392b21afae44c48166e8365702e8e949bf517119a84c954055d01c",
			"license": "MIT",
			"urls": [
				"bzz-raw://83f7589f1deef208d5e3062ece935c493f92607ceef4d4967fa3d5e37ed375a5",
				"dweb:/ipfs/QmdE227T7T8RRjPAyrZpif4N23uWzoDZ84LW3hQBzKwuhG"
			]
		},
		"contracts/IMFBToken.sol": {
			"keccak256": "0x972738f346a3dc4149568e9b0a05939d2e488d6ea420dc54aa250b19e6e86ac9",
			"license": "MIT",
			"urls": [
				"bzz-raw://a978175977a78348564f0c1921598e911d8ce83ba1640bfcaaf1d0cd6fd4aa07",
				"dweb:/ipfs/QmcTamABrfQfVLS6GPK6tBy7W2WnARcrQZvDZyC8Nkd5zf"
			]
		},
		"contracts/IMFEToken.sol": {
			"keccak256": "0xd730036dc789217126b1c2c8235030e23e5ad32dd4075f45ef9ed451674f03a4",
			"license": "MIT",
			"urls": [
				"bzz-raw://6c54ec304ac03235f1b54e20e4a4e39369bf01174b53ddebdaa4f65ef96d25ff",
				"dweb:/ipfs/QmWmXd7tqoHkcvxds5UGcMmkzdPMDB5CSbpS5CB8Exx6P7"
			]
		},
		"contracts/Market.sol": {
			"keccak256": "0x84862ce2ef60855be7b7595e4ccc13d8975bdd30fb46da43fa12c8feb727a26e",
			"license": "MIT",
			"urls": [
				"bzz-raw://268c6f1ecffe969e9a0c5bdada76ab4c01e30363616b9adb8649c897b081831f",
				"dweb:/ipfs/QmT3ngtYWjZaviFcvfuZvSv6PrxBoKHBWyBTz3oUranWDW"
			]
		},
		"contracts/contracts/token/ERC20/IERC20.sol": {
			"keccak256": "0x61437cb513a887a1bbad006e7b1c8b414478427d33de47c5600af3c748f108da",
			"license": "MIT",
			"urls": [
				"bzz-raw://2c3d0973630ed74f2b5ce3944677a885dc70ec32fc83b35f55045a10224da32b",
				"dweb:/ipfs/QmbefZ5RoEZKNHXCALfh683PnaNYzKPcKMFjyY1DVAgq8A"
			]
		},
		"contracts/contracts/token/ERC721/IERC721.sol": {
			"keccak256": "0x516a22876c1fab47f49b1bc22b4614491cd05338af8bd2e7b382da090a079990",
			"license": "MIT",
			"urls": [
				"bzz-raw://a439187f7126d31add4557f82d8aed6be0162007cd7182c48fd934dbab8f3849",
				"dweb:/ipfs/QmRPLguRFvrRJS7r6F1bcLvsx6q1VrgjEpZafyeL8D7xZh"
			]
		},
		"contracts/contracts/utils/introspection/IERC165.sol": {
			"keccak256": "0x447a5f3ddc18419d41ff92b3773fb86471b1db25773e07f877f548918a185bf1",
			"license": "MIT",
			"urls": [
				"bzz-raw://be161e54f24e5c6fae81a12db1a8ae87bc5ae1b0ddc805d82a1440a68455088f",
				"dweb:/ipfs/QmP7C3CHdY9urF4dEMb9wmsp1wMxHF6nhA2yQE5SKiPAdy"
			]
		}
	},
	"version": 1
}